Faith Worden’s Sports Data Blog - Can Luka Dončić fill the shoes of Mavericks legend Dirk Nowitzki?
…
Comparing both their rookie seasons, Luka was putting up way more shots than Dirk, and making them successfully. Luka’s field goals per game is at 7, and Dirk’s was at 2.9. Dončić is leading in putting shots up and making them, along with being in the top half of other players in the NBA for field goals as well. To note, Luka’s first season was played with Nowitzki in his last season of his career.

Code

read_csv("playertotals0809.csv")

# A tibble: 500 × 30
      Rk Player      Pos     Age Tm        G    GS    MP    FG   FGA `FG%`  `3P`
   <dbl> <chr>       <chr> <dbl> <chr> <dbl> <dbl> <dbl> <dbl> <dbl> <dbl> <dbl>
 1     1 Alex Acker  SG       26 TOT      25     0   199    30    76 0.395     7
 2     1 Alex Acker  SG       26 DET       7     0    20     4    11 0.364     0
 3     1 Alex Acker  SG       26 LAC      18     0   179    26    65 0.4       7
 4     2 Hassan Ada… SG       24 TOR      12     0    52     4    13 0.308     0
 5     3 Arron Affl… SG       23 DET      74     8  1234   131   300 0.437    43
 6     4 Maurice Ag… SG       24 NJN      20     0    97    15    43 0.349     0
 7     5 Blake Ahea… PG       24 SAS       3     0    19     2     6 0.333     2
 8     6 Alexis Aji… PF       20 CHA      31     4   182    25    69 0.362     0
 9     7 LaMarcus A… PF       23 POR      81    81  3004   601  1243 0.484     7
10     8 Joe Alexan… SF       22 MIL      59     0   716   102   245 0.416    16
# ℹ 490 more rows
# ℹ 18 more variables: `3PA` <dbl>, `3P%` <dbl>, `2P` <dbl>, `2PA` <dbl>,
#   `2P%` <dbl>, `eFG%` <dbl>, FT <dbl>, FTA <dbl>, `FT%` <dbl>, ORB <dbl>,
#   DRB <dbl>, TRB <dbl>, AST <dbl>, STL <dbl>, BLK <dbl>, TOV <dbl>, PF <dbl>,
#   PTS <dbl>

Code

read_csv("playertotals0910.csv")

# A tibble: 500 × 30
      Rk Player      Pos     Age Tm        G    GS    MP    FG   FGA `FG%`  `3P`
   <dbl> <chr>       <chr> <dbl> <chr> <dbl> <dbl> <dbl> <dbl> <dbl> <dbl> <dbl>
 1     1 Arron Affl… SG       24 DEN      82    75  2221   272   585 0.465   108
 2     2 Alexis Aji… C        21 CHA       6     0    30     5    10 0.5       0
 3     3 LaMarcus A… PF       24 POR      78    78  2922   579  1169 0.495     5
 4     4 Joe Alexan… SF       23 CHI       8     0    29     1     6 0.167     0
 5     5 Malik Allen PF       31 DEN      51     3   456    46   116 0.397     1
 6     6 Ray Allen*  SG       34 BOS      80    80  2819   464   973 0.477   145
 7     7 Tony Allen  SG       28 BOS      54     8   889   129   253 0.51      0
 8     8 Rafer Alst… PG       33 TOT      52    38  1421   155   446 0.348    58
 9     8 Rafer Alst… PG       33 NJN      27    13   766    95   277 0.343    28
10     8 Rafer Alst… PG       33 MIA      25    25   655    60   169 0.355    30
# ℹ 490 more rows
# ℹ 18 more variables: `3PA` <dbl>, `3P%` <dbl>, `2P` <dbl>, `2PA` <dbl>,
#   `2P%` <dbl>, `eFG%` <dbl>, FT <dbl>, FTA <dbl>, `FT%` <dbl>, ORB <dbl>,
#   DRB <dbl>, TRB <dbl>, AST <dbl>, STL <dbl>, BLK <dbl>, TOV <dbl>, PF <dbl>,
#   PTS <dbl>

Code

read_csv("totals1920.csv")

# A tibble: 500 × 30
      Rk Player      Pos     Age Tm        G    GS    MP    FG   FGA `FG%`  `3P`
   <dbl> <chr>       <chr> <dbl> <chr> <dbl> <dbl> <dbl> <dbl> <dbl> <dbl> <dbl>
 1     1 Steven Ada… C        26 OKC      63    63  1680   283   478 0.592     1
 2     2 Bam Adebayo PF       22 MIA      72    72  2417   440   790 0.557     2
 3     3 LaMarcus A… C        34 SAS      53    53  1754   391   793 0.493    61
 4     4 Kyle Alexa… C        23 MIA       2     0    13     1     2 0.5       0
 5     5 Nickeil Al… SG       21 NOP      47     1   591    98   266 0.368    46
 6     6 Grayson Al… SG       24 MEM      38     0   718   117   251 0.466    57
 7     7 Jarrett Al… C        21 BRK      70    64  1852   302   465 0.649     0
 8     8 Kadeem All… PG       27 NYK      10     0   117    19    44 0.432     5
 9     9 Al-Farouq … PF       29 ORL      18     2   380    25    86 0.291     9
10    10 Justin And… SG       26 BRK      10     1   107    10    38 0.263     6
# ℹ 490 more rows
# ℹ 18 more variables: `3PA` <dbl>, `3P%` <dbl>, `2P` <dbl>, `2PA` <dbl>,
#   `2P%` <dbl>, `eFG%` <dbl>, FT <dbl>, FTA <dbl>, `FT%` <dbl>, ORB <dbl>,
#   DRB <dbl>, TRB <dbl>, AST <dbl>, STL <dbl>, BLK <dbl>, TOV <dbl>, PF <dbl>,
#   PTS <dbl>

Code

read_csv("totals2021.csv")

# A tibble: 500 × 30
      Rk Player      Pos     Age Tm        G    GS    MP    FG   FGA `FG%`  `3P`
   <dbl> <chr>       <chr> <dbl> <chr> <dbl> <dbl> <dbl> <dbl> <dbl> <dbl> <dbl>
 1     1 Precious A… PF       21 MIA      61     4   737   124   228 0.544     0
 2     2 Jaylen Ada… PG       24 MIL       7     0    18     1     8 0.125     0
 3     3 Steven Ada… C        27 NOP      58    58  1605   189   308 0.614     0
 4     4 Bam Adebayo C        23 MIA      64    64  2143   456   800 0.57      2
 5     5 LaMarcus A… C        35 TOT      26    23   674   140   296 0.473    31
 6     5 LaMarcus A… C        35 SAS      21    18   544   115   248 0.464    27
 7     5 LaMarcus A… C        35 BRK       5     5   130    25    48 0.521     4
 8     6 Ty-Shon Al… SG       22 PHO      15     0    47     3    12 0.25      2
 9     7 Nickeil Al… SG       22 NOP      46    13  1007   192   458 0.419    76
10     8 Grayson Al… SG       25 MEM      50    38  1259   173   414 0.418   107
# ℹ 490 more rows
# ℹ 18 more variables: `3PA` <dbl>, `3P%` <dbl>, `2P` <dbl>, `2PA` <dbl>,
#   `2P%` <dbl>, `eFG%` <dbl>, FT <dbl>, FTA <dbl>, `FT%` <dbl>, ORB <dbl>,
#   DRB <dbl>, TRB <dbl>, AST <dbl>, STL <dbl>, BLK <dbl>, TOV <dbl>, PF <dbl>,
#   PTS <dbl>
…
